[
	{
		"data_code": "data",
		"env": "d0",
		"app": "raw",
		"folder": "cdb",
		"classifications": {
			"Retainable": {
				"retentionPeriod": 45
			},
			"cl": "CL_WR",
			"pl": ["PL_INTERID", "PL_IDENTIF"],
			"sg": "SG_CONF"
		}
	},
	{
		"data_code": "data",
		"env": "d0",
		"app": "dwh",
		"folder": "billing",
		"classifications": {
			"Retainable": {
				"retentionPeriod": 45
			},
			"cl": "CL_WR",
			"pl": ["PL_BILLING"],
			"sg": "SG_CONF"
		}
	},
	{
		"data_code": "data",
		"env": "d0",
		"app": "dwh",
		"folder": "billing",
		"subfolder": "refs",
		"classifications": {
			"Retainable": {
				"retentionPeriod": 45
			},
			"cl": "CL_WR",
			"pl": ["PL_BILLING"],
			"sg": "SG_CONF"
		}
	},
	{
		"data_code": "data",
		"env": "d0",
		"app": "dwh",
		"folder": "billing",
		"subfolder": "cdr",
		"classifications": {
			"Retainable": {
				"retentionPeriod": 45
			},
			"cl": "CL_WR",
			"pl": ["PL_BILLING", "PL_INTERID"],
			"sg": "SG_CONF"
		}
	},
	{
		"data_code": "data",
		"env": "d0",
		"app": "dwh",
		"folder": "traffic",
		"classifications": {
			"Retainable": {
				"retentionPeriod": 45
			},
			"cl": "CL_WR",
			"pl": ["PL_TRFDATA"],
			"sg": "SG_CONF"
		}
	},
	{
		"data_code": "data",
		"env": "d0",
		"app": "dwh",
		"folder": "traffic",
		"subfolder": "refs",
		"classifications": {
			"Retainable": {
				"retentionPeriod": 45
			},
			"cl": "CL_WR",
			"pl": ["PL_TRFDATA"],
			"sg": "SG_CONF"
		}
	},
	{
		"data_code": "data",
		"env": "d0",
		"app": "dwh",
		"folder": "traffic",
		"subfolder": "cdr",
		"classifications": {
			"Retainable": {
				"retentionPeriod": 45
			},
			"cl": "CL_WR",
			"pl": ["PL_TRFDATA", "PL_INTERID", "PL_SUBSCRI"],
			"sg": "SG_CONF"
		}
	},
	{
		"data_code": "data",
		"env": "d0",
		"app": "dwh",
		"folder": "webclick",
		"classifications": {
			"Retainable": {
				"retentionPeriod": 45
			},
			"cl": "CL_RT",
			"pl": ["PL_CONSUMH"],
			"sg": "SG_IUO"
		}
	},
	{
		"data_code": "data",
		"env": "d0",
		"app": "dwh",
		"folder": "webclick",
		"subfolder": "refs",
		"classifications": {
			"Retainable": {
				"retentionPeriod": 45
			},
			"cl": "CL_RT",
			"pl": ["PL_CONSUMH"],
			"sg": "SG_IUO"
		}
	},
	{
		"data_code": "data",
		"env": "d0",
		"app": "dwh",
		"folder": "webclick",
		"subfolder": "usage",
		"classifications": {
			"Retainable": {
				"retentionPeriod": 45
			},
			"cl": "CL_RT",
			"pl": ["PL_CONSUMH", "PL_INTERID"],
			"sg": "SG_IUO"
		}
	},
	{
		"data_code": "data",
		"env": "d0",
		"app": "ppads",
		"folder": "billing",
		"classifications": {
			"Retainable": {
				"retentionPeriod": 45
			},
			"cl": "CL_RT",
			"pl": ["PL_BILLING"],
			"sg": "SG_CONF"
		}
	},
	{
		"data_code": "data",
		"env": "d0",
		"app": "euds",
		"folder": "billing",
		"classifications": {
			"Retainable": {
				"retentionPeriod": 45
			},
			"cl": "CL_WR",
			"pl": ["PL_BILLING"],
			"sg": "SG_CONF"
		}
	},
	{
		"data_code": "data",
		"env": "d0",
		"app": "euds",
		"folder": "traffic",
		"classifications": {
			"Retainable": {
				"retentionPeriod": 45
			},
			"cl": "CL_WR",
			"pl": ["PL_TRFDATA"],
			"sg": "SG_CONF"
		}
	},
	{
		"data_code": "data",
		"env": "d0",
		"app": "euds",
		"folder": "traffic",
		"subfolder": "refs",
		"classifications": {
			"Retainable": {
				"retentionPeriod": 45
			},
			"cl": "CL_WR",
			"pl": ["PL_TRFDATA"],
			"sg": "SG_CONF"
		}
	},
	{
		"data_code": "data",
		"env": "d0",
		"app": "euds",
		"folder": "traffic",
		"subfolder": "webclick",
		"classifications": {
			"Retainable": {
				"retentionPeriod": 45
			},
			"cl": "CL_WR",
			"pl": ["PL_TRFDATA", "PL_SUBSCRI"],
			"sg": "SG_CONF"
		}
	},
	{
		"data_code": "data",
		"env": "d0",
		"app": "raw",
		"folder": "ada",
		"classifications": {
			"Retainable": {
				"retentionPeriod": 45
			},
			"cl": "CL_RT",
			"pl": ["PL_CONSUMH"],
			"sg": "SG_IUO"
		}
	},
	{
		"data_code": "data",
		"env": "d0",
		"app": "raw",
		"folder": "ada",
		"subfolder": "webclick",
		"classifications": {
			"Retainable": {
				"retentionPeriod": 45
			},
			"cl": "CL_RT",
			"pl": ["PL_CONSUMH", "PL_SUBSCRI"],
			"sg": "SG_IUO"
		}
	},
	{
		"data_code": "data",
		"env": "d0",
		"app": "raw",
		"folder": "ocs",
		"classifications": {
			"Retainable": {
				"retentionPeriod": 45
			},
			"cl": "CL_WR",
			"pl": ["PL_TRFDATA"],
			"sg": "SG_CONF"
		}
	},
	{
		"data_code": "data",
		"env": "d0",
		"app": "raw",
		"folder": "ocs",
		"subfolder": "refs",
		"classifications": {
			"Retainable": {
				"retentionPeriod": 45
			},
			"cl": "CL_WR",
			"pl": ["PL_TRFDATA"],
			"sg": "SG_CONF"
		}
	},
	{
		"data_code": "data",
		"env": "s0",
		"app": "sdb",
		"folder": "irf",
		"classifications": {
			"Retainable": {
				"retentionPeriod": 45
			},
			"cl": "CL_RT",
			"pl": ["PL_CONSUMH", "PL_SUBSCRI"],
			"sg": "SG_IUO"
		}
	},
	{
		"data_code": "data",
		"env": "s0",
		"app": "sdb",
		"folder": "irf",
		"subfolder": "webclick",
		"classifications": {
			"Retainable": {
				"retentionPeriod": 45
			},
			"cl": "CL_RT",
			"pl": ["PL_CONSUMH", "PL_SUBSCRI"],
			"sg": "SG_IUO"
		}
	},
	{
		"data_code": "data",
		"env": "s0",
		"app": "sdb",
		"folder": "irf",
		"subfolder": "webclick/january",
		"classifications": {
			"Retainable": {
				"retentionPeriod": 45
			},
			"cl": "CL_RT",
			"pl": ["PL_CONSUMH", "PL_SUBSCRI"],
			"sg": "SG_IUO"
		}
	}
]