{
	"service": "Sandbox_tag",
	"name": "CL_RT",
	"policyType": 0,
	"description": "Read Any Retail Only Data",
	"isAuditEnabled": true,
	"isEnabled": true,
	"resources": {
		"tag": {
			"values": [
				"CL_RT"
			],
			"isExcludes": false,
			"isRecursive": false
		}
	},
	"policyItems": [
		{
			"accesses": [
				{
					"type": "hdfs:read",
					"isAllowed": true
				},
				{
					"type": "hdfs:execute",
					"isAllowed": true
				}
			],
			"users": [],
			"groups": [
				"usr_dev_hdp_cl_wr",
				"usr_dev_hdp_cl_rt"
			],
			"conditions": [],
			"delegateAdmin": false
		}
	],
	"denyPolicyItems": [
		{
			"accesses": [
				{
					"type": "hdfs:read",
					"isAllowed": true
				},
				{
					"type": "hdfs:write",
					"isAllowed": true
				},
				{
					"type": "hdfs:execute",
					"isAllowed": true
				}
			],
			"users": [],
			"groups": [
				"usr_dev_hdp_cl_ws"
			],
			"conditions": [],
			"delegateAdmin": false
		}
	]
}