{
    "service": "Sandbox_tag",
    "name": "EN_SDB_RAID",
    "isEnabled": true,
    "policyType": 0,
    "description": "",
    "isAuditEnabled": true,
    "resources": {
        "tag": {
            "values": [
                "EN_SDB_RAID"
            ],
            "isExcludes": false,
            "isRecursive": false
        }
    },
    "policyItems": [
        {
            "accesses": [
                {
                    "type": "hdfs:read",
                    "isAllowed": true
                },
                {
                    "type": "hdfs:execute",
                    "isAllowed": true
                }
            ],
            "users": [],
            "groups": [
                "usr_dev_hdp_en_sdb_raid_ro"
            ],
            "conditions": [],
            "delegateAdmin": false
        },
        {
            "accesses": [
                {
                    "type": "hdfs:read",
                    "isAllowed": true
                },
                {
                    "type": "hdfs:write",
                    "isAllowed": true
                },
                {
                    "type": "hdfs:execute",
                    "isAllowed": true
                }
            ],
            "users": [],
            "groups": [
                "usr_dev_hdp_en_sdb_raid_rw"
            ],
            "conditions": [],
            "delegateAdmin": false
        }
    ]
}