{
  "service": "Sandbox_tag",
  "name": "EN_RAW_TST",
  "isEnabled": true,
  "policyType": 0,
  "description": "",
  "isAuditEnabled": true,
  "resources": {
    "tag": {
      "values": [
        "EN_RAW_TST"
      ],
      "isExcludes": false,
      "isRecursive": false
    }
  },
  "policyItems": [
    {
      "accesses": [
        {
          "type": "hdfs:read",
          "isAllowed": true
        },
        {
          "type": "hdfs:execute",
          "isAllowed": true
        }
      ],
      "users": [],
      "groups": [
        "usr_dev_hdp_en_raw_tst_ro"
      ],
      "conditions": [],
      "delegateAdmin": false
    },
    {
      "accesses": [
        {
          "type": "hdfs:read",
          "isAllowed": true
        },
        {
          "type": "hdfs:write",
          "isAllowed": true
        },
        {
          "type": "hdfs:execute",
          "isAllowed": true
        }
      ],
      "users": [],
      "groups": [
        "usr_dev_hdp_en_raw_tst_rw"
      ],
      "conditions": [],
      "delegateAdmin": false
    }
  ],
  "denyPolicyItems": [
    {
      "accesses": [
        {
          "type": "hdfs:read",
          "isAllowed": true
        },
        {
          "type": "hdfs:write",
          "isAllowed": true
        },
        {
          "type": "hdfs:execute",
          "isAllowed": true
        }
      ],
      "users": [],
      "groups": [
        "public"
      ],
      "conditions": [
        {
          "type": "expression",
          "values": [
            "if (ctx.getUserGroups().contains(\"usr_dev_hdp_en_raw_tst_ro\"))\n\tctx.result = false;\nelse if (ctx.getUserGroups().contains(\"usr_dev_hdp_en_raw_tst_rw\"))\n\tctx.result = false;\nelse\n\tctx.result = true;"
          ]
        }
      ],
      "delegateAdmin": false
    }
  ]
}